﻿{
  "account_types": [
    {
      "id": 2,
      "name": "Boaster Free"
    },
    {
      "id": 3,
      "name": "Jobseeker Free"
    },
    {
      "id": 4,
      "name": "Jobseeker Premium"
    },
    {
      "id": 5,
      "name": "Employer Free"
    },
    {
      "id": 6,
      "name": "Employer Premium"
    }
  ],
  "status": 200
}